…
US <- c("CVX", "XOM", "CNQCN", "COP", "MRO", "OXY", "ENBCN", "KMI", "ETP", "MPC", "OKE")
EU <- c("BPLN", "ENIIM", "RDSALN", "TOTAL")
Asia <- c("CNOOC", "CNPCCH", "PETMK", "PTTEPT", "PTTTB", "SINOPE", "TOPTB")
AU <- c("STOAU", "WPLAU", "APAAU")
Energy$region <- if_else(Energy$ticker %in% US, "US",
                         if_else(Energy$ticker %in% EU,"EU",
                         if_else(Energy$ticker %in% Asia, "Asia",
                         "AU")))

Energy %>% 
  group_by(ticker, region) %>% 
  summarise(n = n())

## # A tibble: 26 x 3
## # Groups:   ticker [26]
##    ticker region     n
##    <chr>  <chr>  <int>
##  1 APAAU  AU         9
##  2 BPLN   EU        62
##  3 CNOOC  Asia      20
##  4 CNPCCH Asia       4
##  5 CNQCN  US        15
##  6 COP    US        19
##  7 CVX    US        10
##  8 ENBCN  US        26
##  9 ENIIM  EU        18
## 10 ETP    US        49
## # ... with 16 more rows
…
