…
Permanent wave stood out as a rock sub-genre that, until 2010, stood the test of time in terms of popularity.

Trouble is… as an avid music fan, I’ve not heard of this sub-genre permanent wave at all! Still horrified, let me dig into the dataset a little more. I discover permanent wave actually had a few of my all-time favourite artists and I’ve been a closet permanent wave fan all this while!

spotify %>% 
  filter(playlist_subgenre == "permanent wave") %>% 
  count(track_artist, sort = TRUE) 

## # A tibble: 471 x 2
##    track_artist              n
##    <chr>                 <int>
##  1 Muse                     19
##  2 The Smiths               19
##  3 David Bowie              13
##  4 Depeche Mode             12
##  5 The Cure                 12
##  6 Foo Fighters             11
##  7 New Order                11
##  8 Red Hot Chili Peppers    11
##  9 George Harrison           9
## 10 Oasis                     9
## # ... with 461 more rows
…
Acousticness: A confidence measure from 0.0 to 1.0 of whether the track is acoustic. 1.0 represents high confidence the track is acoustic.

Valence: A measure from 0.0 to 1.0 describing the musical positiveness conveyed by a track. Tracks with high valence sound more positive (e.g. happy, cheerful, euphoric), while tracks with low valence sound more negative (e.g. sad, depressed, angry).

So my approach was to create a criteria that involved summing up Instrumentalness, Acousticness, Valence. Sub-genres with the highest criteria would then be picked …. right?

spotify %>% 
  mutate(criteria = instrumentalness + acousticness + valence) %>% 
  select(playlist_genre, playlist_subgenre, track_album_name, criteria) %>% 
  distinct(track_album_name, .keep_all = TRUE) %>% 
  group_by(playlist_subgenre) %>%
  summarise(criteria = sum(criteria)/n()) %>% 
  arrange(desc(criteria))

## # A tibble: 24 x 2
##    playlist_subgenre  criteria
##    <chr>                 <dbl>
##  1 hip hop               1.08 
##  2 tropical              0.945
##  3 reggaeton             0.907
##  4 neo soul              0.888
##  5 latin pop             0.866
##  6 classic rock          0.865
##  7 electro house         0.852
##  8 hip pop               0.850
##  9 urban contemporary    0.830
## 10 latin hip hop         0.823
## # ... with 14 more rows
…
