…
manifestos <- wp_df %>% 
  bind_rows(list(rp_df, spp_df, nsp_df, sda_df, ppp_df)) %>% 
  unnest_tokens(sentence, value,
                token = "sentences",
                to_lower = FALSE) 

Now that all manifestos are one-sentence-per-row, accounting for bullet points, we can proceed to merge the rest.

manif_df <- manifestos %>% 
  bind_rows(list(pap_df, sdp_df, psp_df, rdu_df))

manif_df

## # A tibble: 2,214 x 3
##     page party sentence                                                         
##    <int> <chr> <chr>                                                            
##  1     1 NSP   "National Solidarity Party  GE Manifesto 2020"                   
##  2     1 PPP   "Home News    \ue803 PPP leader Goh Meng Seng's manifesto focuse~
##  3     1 RP    "Build Back Better, Fairer  We are facing an unprecedented globa~
##  4     1 RP    "This is a particular threat to Singapore’s ability to continue ~
##  5     1 RP    "While we do not criticise the relatively large and unprecedente~
##  6     1 RP    "As we deal with this crisis we will need to build back Singapor~
##  7     1 RP    "Because of the severity of the economic crisis hundreds of thou~
##  8     1 RP    "Reform Party has long campaigned for a better deal for Singapor~
##  9     1 RP    "In particular we want to  replace the PAP deal of austerity for~
## 10     1 RP    "Take the foreign worker dormitory operators as an example."     
## # ... with 2,204 more rows
…
This method is a little too simplistic. Recall that for bullet point-heavy PDFs, we broke down each bullet point into its own sentence and, as a consequence, white spaces were created and also treated as a standalone sentence. Counting sentences alone to gauge the level of detail in each manifesto would inflate the sentence count of bullet-point heavy PDFs.

pap_df %>% 
  mutate(length = str_count(sentence)) %>% 
  arrange(length)

## # A tibble: 272 x 4
##    sentence  page party length
##    <chr>    <int> <chr>  <int>
##  1 " "          6 PAP        1
##  2 " "          6 PAP        1
##  3 " "          6 PAP        1
##  4 " "          6 PAP        1
##  5 " "          6 PAP        1
##  6 " "          7 PAP        1
##  7 " "          7 PAP        1
##  8 " "          8 PAP        1
##  9 " "          9 PAP        1
## 10 " "         10 PAP        1
## # ... with 262 more rows
…
