…
df

## # A tibble: 710,300 x 3
##    date       company    word      
##    <date>     <chr>      <chr>     
##  1 2020-05-05 Activision company   
##  2 2020-05-05 Activision name      
##  3 2020-05-05 Activision activision
##  4 2020-05-05 Activision blizzard  
##  5 2020-05-05 Activision company   
##  6 2020-05-05 Activision ticker    
##  7 2020-05-05 Activision atvi      
##  8 2020-05-05 Activision us        
##  9 2020-05-05 Activision date      
## 10 2020-05-05 Activision 2020      
## # ... with 710,290 more rows
…
Removing Stop Words And Numbers

Next, we remove stop words (words that are not useful for an analysis, typically extremely common words such as the, of, to, and so forth in English) and numbers used during the earnings call.

df_tidy <- df %>%
  #remove stop words
  anti_join(stop_words, by = "word") %>%
  #remove numbers (digits)
  filter(!str_detect(word, c("\\d+"))) 

df_tidy

## # A tibble: 303,908 x 3
##    date       company    word       
##    <date>     <chr>      <chr>      
##  1 2020-05-05 Activision company    
##  2 2020-05-05 Activision activision 
##  3 2020-05-05 Activision blizzard   
##  4 2020-05-05 Activision company    
##  5 2020-05-05 Activision ticker     
##  6 2020-05-05 Activision atvi       
##  7 2020-05-05 Activision date       
##  8 2020-05-05 Activision event      
##  9 2020-05-05 Activision description
## 10 2020-05-05 Activision earnings   
## # ... with 303,898 more rows
…
df_count <- df_count %>% 
  left_join(total)

df_tf_idf <- df_count %>%
 filter(!str_detect(word, c("\\d+"))) %>% 
  bind_tf_idf(word, company, n)

df_tf_idf %>% 
  arrange(desc(tf))

## # A tibble: 20,396 x 7
##    company    word      n  total     tf   idf tf_idf
##    <chr>      <chr> <int>  <int>  <dbl> <dbl>  <dbl>
##  1 NetEase    the    6092 135569 0.0473     0      0
##  2 Sea        the    4812 112882 0.0441     0      0
##  3 Activision the    8762 213379 0.0429     0      0
##  4 Tencent    the    9694 248470 0.0408     0      0
##  5 Activision and    7809 213379 0.0382     0      0
##  6 NetEase    and    4413 135569 0.0343     0      0
##  7 Activision of     6729 213379 0.0329     0      0
##  8 Tencent    and    7419 248470 0.0312     0      0
##  9 Sea        and    3279 112882 0.0301     0      0
## 10 Sea        of     3251 112882 0.0298     0      0
## # ... with 20,386 more rows
…
