…
There’s one outlier with zero total_cup_points - probably a data entry error. Let’s remove that. At the same time, there does not appear to be a unique identifier for each coffee, so let’s add that.

coffee <- coffee %>% 
  filter(total_cup_points > 0) %>% 
  mutate(id = row_number()) %>% 
  select(id, everything())

coffee

## # A tibble: 1,338 x 44
##       id total_cup_points species owner country_of_orig~ farm_name lot_number
##    <int>            <dbl> <chr>   <chr> <chr>            <chr>     <chr>     
##  1     1             90.6 Arabica meta~ Ethiopia         "metad p~ <NA>      
##  2     2             89.9 Arabica meta~ Ethiopia         "metad p~ <NA>      
##  3     3             89.8 Arabica grou~ Guatemala        "san mar~ <NA>      
##  4     4             89   Arabica yidn~ Ethiopia         "yidneka~ <NA>      
##  5     5             88.8 Arabica meta~ Ethiopia         "metad p~ <NA>      
##  6     6             88.8 Arabica ji-a~ Brazil            <NA>     <NA>      
##  7     7             88.8 Arabica hugo~ Peru              <NA>     <NA>      
##  8     8             88.7 Arabica ethi~ Ethiopia         "aolme"   <NA>      
##  9     9             88.4 Arabica ethi~ Ethiopia         "aolme"   <NA>      
## 10    10             88.2 Arabica diam~ Ethiopia         "tulla c~ <NA>      
## # ... with 1,328 more rows, and 37 more variables: mill <chr>,
## #   ico_number <chr>, company <chr>, altitude <chr>, region <chr>,
## #   producer <chr>, number_of_bags <dbl>, bag_weight <chr>,
## #   in_country_partner <chr>, harvest_year <chr>, grading_date <chr>,
## #   owner_1 <chr>, variety <chr>, processing_method <chr>, aroma <dbl>,
## #   flavor <dbl>, aftertaste <dbl>, acidity <dbl>, body <dbl>, balance <dbl>,
## #   uniformity <dbl>, clean_cup <dbl>, sweetness <dbl>, cupper_points <dbl>,
## #   moisture <dbl>, category_one_defects <dbl>, quakers <dbl>, color <chr>,
## #   category_two_defects <dbl>, expiration <chr>, certification_body <chr>,
## #   certification_address <chr>, certification_contact <chr>,
## #   unit_of_measurement <chr>, altitude_low_meters <dbl>,
## #   altitude_high_meters <dbl>, altitude_mean_meters <dbl>

Investigating missingness

How much missing data is in this data set?

coffee %>% 
  skimr::skim() %>% 
  select(skim_variable, complete_rate) %>% 
  arrange(complete_rate)

## # A tibble: 44 x 2
##    skim_variable        complete_rate
##    <chr>                        <dbl>
##  1 lot_number                   0.206
##  2 farm_name                    0.732
##  3 mill                         0.765
##  4 producer                     0.827
##  5 altitude_low_meters          0.828
##  6 altitude_high_meters         0.828
##  7 altitude_mean_meters         0.828
##  8 altitude                     0.831
##  9 variety                      0.831
## 10 color                        0.837
## # ... with 34 more rows
…
Let’s dig further into the data before finalizing the columns.

How are total_cup_points calculated?

From this page in the Coffee Institute’s data base, it appears that total_cup_points is the sum of columns aroma to cupper_points.

coffee %>% 
  select(total_cup_points, aroma:cupper_points)

## # A tibble: 1,338 x 11
##    total_cup_points aroma flavor aftertaste acidity  body balance uniformity
##               <dbl> <dbl>  <dbl>      <dbl>   <dbl> <dbl>   <dbl>      <dbl>
##  1             90.6  8.67   8.83       8.67    8.75  8.5     8.42      10   
##  2             89.9  8.75   8.67       8.5     8.58  8.42    8.42      10   
##  3             89.8  8.42   8.5        8.42    8.42  8.33    8.42      10   
##  4             89    8.17   8.58       8.42    8.42  8.5     8.25      10   
##  5             88.8  8.25   8.5        8.25    8.5   8.42    8.33      10   
##  6             88.8  8.58   8.42       8.42    8.5   8.25    8.33      10   
##  7             88.8  8.42   8.5        8.33    8.5   8.25    8.25      10   
##  8             88.7  8.25   8.33       8.5     8.42  8.33    8.5       10   
##  9             88.4  8.67   8.67       8.58    8.42  8.33    8.42       9.33
## 10             88.2  8.08   8.58       8.5     8.5   7.67    8.42      10   
## # ... with 1,328 more rows, and 3 more variables: clean_cup <dbl>,
## #   sweetness <dbl>, cupper_points <dbl>
…
Replacing NAs

Now that all altitude measurements are standardized in the meters column, we can begin to replace NAs.

sum(is.na(coffee$meters))

## [1] 230

coffee %>% 
  filter(is.na(meters)) %>% 
  count(country_of_origin, region, sort = TRUE)

## # A tibble: 67 x 3
##    country_of_origin      region                     n
##    <chr>                  <chr>                  <int>
##  1 United States (Hawaii) kona                      64
##  2 Colombia               huila                     18
##  3 Guatemala              oriente                   14
##  4 Colombia               <NA>                       9
##  5 Thailand               <NA>                       9
##  6 United States (Hawaii) <NA>                       7
##  7 Brazil                 monte carmelo              6
##  8 Ethiopia               sidamo                     5
##  9 Brazil                 campos altos - cerrado     4
## 10 Brazil                 cerrado                    4
## # ... with 57 more rows
…
hawaii <- coffee %>% 
  filter(str_detect(country_of_origin, "(Hawaii)")) %>% 
  select(id, meters) %>% 
  mutate(meters = replace_na(meters, (186+130)/2))

coffee_refined <- coffee %>% 
  left_join(hawaii, by = "id") %>%
  mutate(meters = coalesce(meters.x, meters.y)) %>%
  select(-meters.x, -meters.y)

coffee_refined %>% 
  filter(is.na(meters)) %>% 
  count(country_of_origin, region, sort = TRUE)

## # A tibble: 65 x 3
##    country_of_origin region                     n
##    <chr>             <chr>                  <int>
##  1 Colombia          huila                     18
##  2 Guatemala         oriente                   14
##  3 Colombia          <NA>                       9
##  4 Thailand          <NA>                       9
##  5 Brazil            monte carmelo              6
##  6 Ethiopia          sidamo                     5
##  7 Brazil            campos altos - cerrado     4
##  8 Brazil            cerrado                    4
##  9 Brazil            <NA>                       4
## 10 Ethiopia          yirgacheffe                4
## # ... with 55 more rows
…
coffee_refined <- coffee_refined %>% 
  left_join(oriente, by = "id") %>%
  mutate(meters = coalesce(meters.x, meters.y)) %>%
  select(-meters.x, -meters.y)

We’ll replace the remaining missing values shortly using the recipes package during our feature pre-processing stage.

Analyzing variety missingness

variety appears to be another interesting column …

coffee_refined %>% 
  count(variety, sort = T)

## # A tibble: 29 x 2
##    variety            n
##    <chr>          <int>
##  1 Caturra          255
##  2 <NA>             226
##  3 Bourbon          224
##  4 Typica           211
##  5 Other            109
##  6 Catuai            74
##  7 Hawaiian Kona     44
##  8 Yellow Bourbon    35
##  9 Mundo Novo        33
## 10 Catimor           20
## # ... with 19 more rows
…
