…
This will be my first attempt at machine learning using the tidymodels package, with a dataset taken from TidyTuesday. The code used to scrape this data can be found here.

The study analyses data from the Food and Agriculture Organization of the United Nations (FAO) to determine the quantity of produce supplied for consumption of 11 food types for all countries researched. Using CO2 emissions data, the carbon footprint per capita is then calculated for each food type.

I heavily borrow intuition gleaned from this blog post by Julia Silge - who does an amazing job at detailing the intricacies of tidymodels metapackage in her various blog posts.

library(tidyverse)

theme_set(theme_minimal())

food_consumption <- readr::read_csv("https://raw.githubusercontent.com/rfordatascience/tidytuesday/master/data/2020/2020-02-18/food_consumption.csv")
food_consumption

## # A tibble: 1,430 x 4
##    country   food_category            consumption co2_emmission
##    <chr>     <chr>                          <dbl>         <dbl>
##  1 Argentina Pork                           10.5          37.2 
##  2 Argentina Poultry                        38.7          41.5 
##  3 Argentina Beef                           55.5        1712   
##  4 Argentina Lamb & Goat                     1.56         54.6 
##  5 Argentina Fish                            4.36          6.96
##  6 Argentina Eggs                           11.4          10.5 
##  7 Argentina Milk - inc. cheese            195.          278.  
##  8 Argentina Wheat and Wheat Products      103.           19.7 
##  9 Argentina Rice                            8.77         11.2 
## 10 Argentina Soybeans                        0             0   
## # ... with 1,420 more rows
…
food %>% 
  select(americas, everything())

## # A tibble: 130 x 12
##    americas  pork poultry  beef lamb_goat   fish  eggs milk_inc_cheese
##    <fct>    <dbl>   <dbl> <dbl>     <dbl>  <dbl> <dbl>           <dbl>
##  1 Americas  37.2    41.5 1712       54.6   6.96 10.5             278.
##  2 Other     85.4    49.5 1045.     346.   28.2   7.82            334.
##  3 Other     38.5    14.2  694.     536.    6.15 11.4             433.
##  4 Other     76.8    28.9  412.     740.  119.    7.57            322.
##  5 Other     78.9    37.6  694.     662.   32.5   9.1             196.
##  6 Americas  97.8    53.7 1118.      15.1  19.7  13.4             363.
##  7 Americas  59.6    29.5  898.     288.   10.4  12.1             300.
##  8 Other    154.     23.0  922.      58.5  36.9  13.4             364.
##  9 Americas  44.6    48.3 1211.      21.7  16.0   8.25            213.
## 10 Other     36.7    19.7  721.     335.    8.32  7.62            410.
## # ... with 120 more rows, and 4 more variables: wheat_and_wheat_products <dbl>,
## #   rice <dbl>, soybeans <dbl>, nuts_inc_peanut_butter <dbl>
…
