…
springer <- springer_table %>% 
  select(1:3, 9, 12, 16:17, 19:21) #selecting columns that I want

I want to explore two columns specifically:

english_package_name: General categorisation e.g. Mathematics and Statistics, Engineering, Computer Science, etc.

subject_classification: Specific sub-categories e.g. Linear and Multilinear Algebras, Chemical Engineering, Python, etc.

springer %>% 
  count(english_package_name, sort = T)

## # A tibble: 21 x 2
##    english_package_name                  n
##    <chr>                             <int>
##  1 Mathematics and Statistics           56
##  2 Computer Science                     49
##  3 Physics and Astronomy                43
##  4 Engineering                          36
##  5 Chemistry and Materials Science      33
##  6 Biomedical and Life Sciences         32
##  7 Business and Management              25
##  8 Business and Economics               16
##  9 Behavioral Science                   11
## 10 Behavioral Science and Psychology    10
## # ... with 11 more rows

springer %>% 
  count(subject_classification, sort = T)

## # A tibble: 392 x 2
##    subject_classification                                                      n
##    <chr>                                                                   <int>
##  1 Engineering; Circuits and Systems; Processor Architectures; Logic Desi~     6
##  2 Mathematics; Analysis                                                       4
##  3 Chemistry; Food Science; Industrial Chemistry/Chemical Engineering; Sp~     2
##  4 Computer Science; Computer Appl. in Administrative Data Processing; Bu~     2
##  5 Computer Science; Programming Languages, Compilers, Interpreters; Pyth~     2
##  6 Engineering; Control; Systems Theory, Control; Computer Applications        2
##  7 Mathematics; Linear and Multilinear Algebras, Matrix Theory                 2
##  8 Physics; Numerical and Computational Physics, Simulation; Mathematical~     2
##  9 Social Sciences; Archaeology                                                2
## 10 Biomedicine; Biomedical Engineering/Biotechnology; Biomedical Engineer~     1
## # ... with 382 more rows

So if one is looking for a book, it’s better to search for sub-categories under subject_classification. However, multiple sub-categories are listed under subject_classification column per book. I plan to separate() then pivot_longer() to make our data tidy.

springer2 <- springer %>%
  separate(subject_classification, paste("category", 1:8, sep = ""), sep = ";")

springer2 %>% 
  select(book_title, english_package_name, contains("cat"))

## # A tibble: 407 x 10
##    book_title english_package~ category1 category2 category3 category4 category5
##    <chr>      <chr>            <chr>     <chr>     <chr>     <chr>     <chr>    
##  1 Fundament~ Engineering      Engineer~ " Circui~ " Energy~ " Electr~ " Energy~
##  2 Handbook ~ Humanities, Soc~ Social S~ " Sociol~ " Clinic~ " Popula~  <NA>    
##  3 All of St~ Mathematics and~ Mathemat~ " Comput~ " Probab~ " Comple~ " Statis~
##  4 Social An~ Behavioral Scie~ Psycholo~ " Clinic~ " Person~ " Commun~  <NA>    
##  5 Discrete ~ Mathematics and~ Mathemat~ " Combin~ " Number~  <NA>      <NA>    
##  6 Developme~ Biomedical and ~ Biomedic~ " Neuros~ " Anatom~ " Neurob~  <NA>    
##  7 Intuitive~ Engineering      Engineer~ " Commun~ " Mathem~ " Mathem~ " Signal~
##  8 Handbook ~ Humanities, Soc~ Social S~ " Sociol~ " Public~ " Demogr~  <NA>    
##  9 Handbook ~ Humanities, Soc~ Social S~ " Sociol~ " Social~ " Person~  <NA>    
## 10 Handbook ~ Humanities, Soc~ Social S~ " Sociol~ " Politi~  <NA>      <NA>    
## # ... with 397 more rows, and 3 more variables: category6 <chr>,
## #   category7 <chr>, category8 <chr>
…
