…
dim(data)

## [1] 18278    76

Data Discrepancies

I note the website where the data was scrapped from has its data updated once every few days. So there might be discrepancies if you’re comparing the numbers in this data set to the latest ones featured on the website.

Additionally, I was doing a little fact-checking online and some columns don’t tally to real-life figures (understandably, FIFA 20 is a video game). For instance, the player with the highest release clause in real life is Karim Benzema at GBP846m. In this data set however, even after accounting for currency translations, Benzema does not even appear in the top 10 list for release clauses.

data %>%
  select(short_name, club, release_clause_eur, wage_eur) %>% 
  arrange(desc(release_clause_eur))

## # A tibble: 18,278 x 4
##    short_name    club                release_clause_eur wage_eur
##    <chr>         <chr>                            <dbl>    <dbl>
##  1 L. Messi      FC Barcelona                 195800000   565000
##  2 Neymar Jr     Paris Saint-Germain          195200000   290000
##  3 K. Mbappé     Paris Saint-Germain          191700000   155000
##  4 E. Hazard     Real Madrid                  184500000   470000
##  5 K. De Bruyne  Manchester City              166500000   370000
##  6 J. Oblak      Atlético Madrid              164700000   125000
##  7 H. Kane       Tottenham Hotspur            159800000   220000
##  8 V. van Dijk   Liverpool                    150200000   200000
##  9 M. Salah      Liverpool                    148900000   240000
## 10 M. ter Stegen FC Barcelona                 143400000   250000
## # ... with 18,268 more rows
…
corr <- data %>%
  select(short_name, club, position, player_tags, player_traits) %>%
  separate(player_tags, paste("tag", 1:10, sep = ""), sep = ", ") %>%
  separate(player_traits, paste("trait", 1:8, sep = ""), sep = ", ") %>% 
  pivot_longer(tag1:trait8, names_to = "tag", values_to = "description", values_drop_na = T) %>%
  mutate(description = str_replace(description, "#", "")) %>% 
  filter(!str_detect(description, "CPU AI Only")) %>% 
  group_by(description) %>% 
  filter(n() > 100) %>% 
  pairwise_cor(description, short_name, sort = TRUE)

corr

## # A tibble: 552 x 3
##    item1                    item2                    correlation
##    <chr>                    <chr>                          <dbl>
##  1 Crowd Favourite          Selfish                        0.388
##  2 Selfish                  Crowd Favourite                0.388
##  3 Speedster                Early Crosser                  0.288
##  4 Early Crosser            Speedster                      0.288
##  5 Speedster                Acrobat                        0.262
##  6 Acrobat                  Speedster                      0.262
##  7 Aerial Threat            Strength                       0.252
##  8 Strength                 Aerial Threat                  0.252
##  9 Avoids Using Weaker Foot Giant Throw-in                 0.223
## 10 Giant Throw-in           Avoids Using Weaker Foot       0.223
## # ... with 542 more rows
…
