…
The new tidymodels website was launched recently and contains a wealth of information - explaining in detail the main functions of each package and how the ecosystem operates. Prior to the launch of the website, I was already getting my feet wet in a previous blog post where I did some predictive modelling with tidymodels.

Here I intend to explore the ecosystem further and utilise workflows and tune package. The former has functions to bundle your pre-processing, modeling, and post-processing together, while the latter is meant for optimization of model’s hyperparameters as well as pre-processing steps.

library(tidyverse)
theme_set(theme_minimal())

Data Set

This dataset comes once again from a recent TidyTuesday. BBC Music asked more than 100 critics, artists, and other music industry folks from 15 countries for their five favorite hip-hop tracks and this data contains said polling results. To be clear, these are not the final results of the poll but an aggregation of their top five submissions.

polls <- readr::read_csv('https://raw.githubusercontent.com/rfordatascience/tidytuesday/master/data/2020/2020-04-14/polls.csv')
polls

## # A tibble: 535 x 9
##     rank title artist gender  year critic_name critic_rols critic_country
##    <dbl> <chr> <chr>  <chr>  <dbl> <chr>       <chr>       <chr>         
##  1     1 Term~ Publi~ male    1998 Joseph Aba~ Fat Beats   US            
##  2     2 4th ~ Gza f~ male    1995 Joseph Aba~ Fat Beats   US            
##  3     3 Pete~ Run D~ male    1986 Joseph Aba~ Fat Beats   US            
##  4     4 Play~ GLOBE~ male    2001 Joseph Aba~ Fat Beats   US            
##  5     5 Time~ O.C.   male    1994 Joseph Aba~ Fat Beats   US            
##  6     1 Play~ Slum ~ male    1997 Biba Adams  Critic      US            
##  7     2 Self~ Stop ~ mixed   1989 Biba Adams  Critic      US            
##  8     3 Push~ Salt-~ female  1986 Biba Adams  Critic      US            
##  9     4 Ambi~ 2Pac   male    1996 Biba Adams  Critic      US            
## 10     5 Big ~ JAY-Z~ male    1999 Biba Adams  Critic      US            
## # ... with 525 more rows, and 1 more variable: critic_country2 <chr>

Data Cleaning

Let’s remove the duplicate entries, remove columns I won’t be using, and create our two buckets - “Old School” for hip-hop songs released before the year 2000, and “Modern” for songs released after 2000.

sorted <- polls %>%
  distinct(title, .keep_all = TRUE) %>%
  mutate(bucket = case_when(year < 2000 ~ "Old School",
                            TRUE ~ "Modern")) %>%
  select(-contains("critic"), -rank)

sorted

## # A tibble: 309 x 5
##    title                   artist                          gender  year bucket  
##    <chr>                   <chr>                           <chr>  <dbl> <chr>   
##  1 Terminator X To The Ed~ Public Enemy                    male    1998 Old Sch~
##  2 4th Chamber             Gza ft. Ghostface Killah & Kil~ male    1995 Old Sch~
##  3 Peter Piper             Run DMC                         male    1986 Old Sch~
##  4 Play That Beat Mr DJ    GLOBE & Whiz Kid                male    2001 Modern  
##  5 Time’s Up               O.C.                            male    1994 Old Sch~
##  6 Players                 Slum Village                    male    1997 Old Sch~
##  7 Self Destruction        Stop The Violence Movement      mixed   1989 Old Sch~
##  8 Push It                 Salt-N-Pepa                     female  1986 Old Sch~
##  9 Ambitionz Az A Ridah    2Pac                            male    1996 Old Sch~
## 10 Big Pimpin'             JAY-Z ft. UGK                   male    1999 Old Sch~
## # ... with 299 more rows
…
Using the genius package from Josiah Parry, the add_genius function is able to pull lyrics for song/album by specifying the artist and the title. Note: Pulling lyrics for 309 songs took slightly over 12 minutes and not all lyrics were successfully retrieved. You can choose to use the code I hash-tagged out, or the resultign dataframe that I uploaded to my GitHub.

library(genius)

#lyrics <- sorted %>% add_genius(artist, title, type = "lyrics")

lyrics <- read_csv("https://raw.githubusercontent.com/DesmondChoy/DataSets/master/lyrics.csv")

From an initial size of 309 songs, add_genius only managed to return lyrics for 142 songs. Let’s also remove NA values.

lyrics %>%
  distinct(title, .keep_all = TRUE)

## # A tibble: 142 x 8
##    title      artist   gender  year bucket track_title     line lyric           
##    <chr>      <chr>    <chr>  <dbl> <chr>  <chr>          <dbl> <chr>           
##  1 Terminato~ Public ~ male    1998 Old S~ Terminator X ~     1 "\"At the count~
##  2 Peter Pip~ Run DMC  male    1986 Old S~ Peter Piper        1 "Now Peter Pipe~
##  3 Play That~ GLOBE &~ male    2001 Modern Play That Bea~     1 "Punk-rock, new~
##  4 Players    Slum Vi~ male    1997 Old S~ Players            1 "(Players)"     
##  5 Ambitionz~ 2Pac     male    1996 Old S~ Ambitionz Az ~     1 "I won't deny i~
##  6 Sucker MCs Run DMC  male    1984 Old S~ Sucker M.C.’s      1 "Two years ago,~
##  7 Lyrics Of~ Eric B ~ male    1988 Old S~ Lyrics of Fury     1 "I'm rated \"R\~
##  8 In Da Club 50 Cent  male    2003 Modern In Da Club         1  <NA>           
##  9 Dear Mama  2Pac     male    1995 Old S~ Dear Mama          1 "You are apprec~
## 10 Fuck Tha ~ NWA      male    1988 Old S~ Fuck tha Poli~     1  <NA>           
## # ... with 132 more rows
…
Let’s peek at the top words used in our songs.

tidy_lyrics %>% 
  count(word, sort = TRUE) 

## # A tibble: 1,686 x 2
##    word        n
##    <chr>   <int>
##  1 bitch     945
##  2 shit      840
##  3 god       650
##  4 money     522
##  5 love      420
##  6 feeling   380
##  7 bout      330
##  8 real      290
##  9 baby      272
## 10 crazy     260
## # ... with 1,676 more rows
…
#Joining it back to the original dataframe
lyrics_count <- tidy_lyrics %>% 
  left_join(totals, by = "title")

Which songs have the highest proportion of negative words?

lyrics_count %>% 
  filter(sentiment == "negative") %>% 
  count(title, sentiment, total_words) %>% 
  ungroup() %>% 
  mutate(percent = n/total_words) %>% 
  arrange(desc(percent))

## # A tibble: 141 x 5
##    title                                 sentiment total_words     n percent
##    <chr>                                 <chr>           <int> <int>   <dbl>
##  1 Bout It Bout It                       negative          389   150   0.386
##  2 Players                               negative           26    10   0.385
##  3 I Got 5 On It                         negative          113    41   0.363
##  4 They Want EFX                         negative          136    49   0.360
##  5 We Got It For Cheap (Intro)           negative          162    56   0.346
##  6 Mask Off                              negative          174    58   0.333
##  7 Fight Da Faida                        negative          175    58   0.331
##  8 Insane In The Brain                   negative          180    53   0.294
##  9 Straight Outta Compton (Extended Mix) negative          176    51   0.290
## 10 Get The Bozack                        negative          163    46   0.282
## # ... with 131 more rows
…
