…
nature_code representing the co-ed status of a school - whether a school is mixed or a strictly Boys’/Girls’ school.

gifted_ind indicates if a school offers Gifted Education Programme (GEP). The GEP is designed to identify the top 1% students based on a series of tests. As of 2020, 9 schools offer GEP.

sap_ind indicates if a school offers Special Assistance Plan (SAP), which is a syllabus more focused on a student’s mother tongue (typically Mandarin). Here is an interesting commentary I found on SAP schools.

On a related note, I intentionally excluded data points related to accessibility i.e. public transport. I could be wrong on this, but I believe a great deal of parents would use the school’s bus shuttle services to transport the kids to and fro from school. Accessibility is a point of consideration but would come into play more strongly when a child is old and independent enough to take public transport.

features <- pri_sch %>% 
  select(school_name, zone_code, dgp_code, nature_code, gifted_ind, sap_ind)

features

## # A tibble: 186 x 6
##    school_name               zone_code dgp_code   nature_code gifted_ind sap_ind
##    <chr>                     <chr>     <chr>      <chr>       <chr>      <chr>  
##  1 Admiralty Primary School  North     Woodlands  Co-Ed Scho~ No         No     
##  2 Ahmad Ibrahim Primary Sc~ North     Yishun     Co-Ed Scho~ No         No     
##  3 Ai Tong School            South     Bishan     Co-Ed Scho~ No         Yes    
##  4 Alexandra Primary School  South     Bukit Mer~ Co-Ed Scho~ No         No     
##  5 Anchor Green Primary Sch~ North     Seng Kang  Co-Ed Scho~ No         No     
##  6 Anderson Primary School   North     Ang Mo Kio Co-Ed Scho~ No         No     
##  7 Ang Mo Kio Primary School South     Ang Mo Kio Co-Ed Scho~ No         No     
##  8 Anglo-Chinese School (Ju~ South     Central    Boys' Scho~ No         No     
##  9 Anglo-Chinese School (Pr~ South     Novena     Boys' Scho~ Yes        No     
## 10 Angsana Primary School    East      Tampines   Co-Ed Scho~ No         No     
## # ... with 176 more rows
…
More data entry errors - I’ll leave these as it is for now, and do some feature imputing to replace these missing values later.

bus_count <- buses_clean %>% 
  group_by(school_name) %>% 
  summarize(bus_count = n()) %>% 
  ungroup()

bus_count

## # A tibble: 180 x 2
##    school_name                    bus_count
##    <chr>                              <int>
##  1 Admiralty Primary School               3
##  2 Ahmad Ibrahim Primary School           6
##  3 Ai Tong School                         3
##  4 Alexandra Primary School               5
##  5 Anchor Green Primary School            3
##  6 Anderson Primary School                3
##  7 Ang Mo Kio Primary School              6
##  8 Anglo-Chinese School (Junior)         11
##  9 Anglo-Chinese School (Primary)         6
## 10 Angsana Primary School                10
## # ... with 170 more rows

Which primary schools have access to the most buses?

bus_count %>% 
  arrange(desc(bus_count)) %>% 
  inner_join(pri_sch) %>% 
  select(school_name, bus_count, bus_desc)

## # A tibble: 180 x 3
##    school_name               bus_count bus_desc                                 
##    <chr>                         <int> <chr>                                    
##  1 Junyuan Primary School           22 76281: 22, 46, 129 76061: 10, 15, 20, 21~
##  2 Fuhua Primary School             18 Jurong East Central (Bs28441): 41,49,52,~
##  3 Maha Bodhi School                17 5,8,15,22,25,45,51,55,59,61,63,63m,65,66~
##  4 Nanyang Primary School           17 66, 67, 74, 93, 151, 153, 154, 156, 157,~
##  5 Bendemeer Primary School         16 13 23 31 61 64 65 65m 66 125, 125x ,133,~
##  6 Chij (Katong) Primary            15 15, 55, 36, 16, 135, 197, 196, 31, 13, 7~
##  7 Hong Wen School                  15 Serangoon Road: 13, 23, 31, 64, 65, 66, ~
##  8 Singapore Chinese Girls'~        15 66, 67, 105, 132, 151, 153, 154, 156, 17~
##  9 Ngee Ann Primary School          14 13, 16, 16m, 31,36, 43, 47, 48, 55, 135,~
## 10 Seng Kang Primary School         14 27, 80, 82, 83, 86, 87, 88, 89, 119, 156~
## # ... with 170 more rows
…
Yu Neng Primary School
bedok mrt station (east-west line), bedok reservoir mrt station (downtown line)
bedok mrt station (east-), bedok reservoir mrt station ()

Next, I found a list of all MRT & LRT lines online.

station_names <- read_csv("https://raw.githubusercontent.com/DesmondChoy/DataSets/master/train-station-chinese-names.csv") %>% 
  select(-mrt_station_chinese, -mrt_line_chinese) %>% 
  mutate(across(where(is.character), str_to_lower))

station_names

## # A tibble: 184 x 3
##    stn_code mrt_station_english mrt_line_english
##    <chr>    <chr>               <chr>           
##  1 ns1      jurong east         north south line
##  2 ns2      bukit batok         north south line
##  3 ns3      bukit gombak        north south line
##  4 ns4      choa chu kang       north south line
##  5 ns5      yew tee             north south line
##  6 ns7      kranji              north south line
##  7 ns8      marsiling           north south line
##  8 ns9      woodlands           north south line
##  9 ns10     admiralty           north south line
## 10 ns11     sembawang           north south line
## # ... with 174 more rows
…
mrt_count <- mrt_clean_id %>% 
  group_by(school_name) %>% 
  summarize(station_count = n()) %>% 
  ungroup()

mrt_count

## # A tibble: 182 x 2
##    school_name                    station_count
##    <chr>                                  <int>
##  1 Admiralty Primary School                   1
##  2 Ahmad Ibrahim Primary School               1
##  3 Ai Tong School                             1
##  4 Alexandra Primary School                   2
##  5 Anchor Green Primary School                2
##  6 Anderson Primary School                    1
##  7 Ang Mo Kio Primary School                  1
##  8 Anglo-Chinese School (Junior)              1
##  9 Anglo-Chinese School (Primary)             1
## 10 Angsana Primary School                     2
## # ... with 172 more rows
…
